{
  "version": "1.0.0-rc2-final",
  "description": "Entity Framework is Microsoft's recommended data access technology for new applications.",
  "buildOptions": {
    "warningsAsErrors": true,
    "keyFile": "../../tools/Key.snk",
    "nowarn": [
      "CS1591"
    ],
    "xmlDoc": true,
    "compile": {
      "include": "../Shared/*.cs"
    },
    "embed": {
      "includeFiles": "Properties/Microsoft.EntityFrameworkCore.rd.xml"
    }
  },
  "dependencies": {
    "Ix-Async": "1.2.5",
    "Microsoft.Extensions.Caching.Memory": "1.0.0-rc2-final",
    "Microsoft.Extensions.DependencyInjection": "1.0.0-rc2-final",
    "Microsoft.Extensions.Logging": "1.0.0-rc2-final",
    "Remotion.Linq": "2.0.2"
  },
  "frameworks": {
    "net451": {
      "frameworkAssemblies": {
        "System.ComponentModel.DataAnnotations": "",
        "System.Runtime": {
          "type": "build"
        }
      }
    },
    "netstandard1.3": {
      "imports": [
        "portable-net452+win81"
      ],
      "dependencies": {
        "System.Collections.Concurrent": "4.0.12-rc2-24027",
        "System.ComponentModel.Annotations": "4.1.0-rc2-24027",
        "System.Linq.Queryable": "4.0.1-rc2-24027",
        "System.ObjectModel": "4.0.12-rc2-24027",
        "System.Reflection.Extensions": "4.0.1-rc2-24027",
        "System.Reflection.TypeExtensions": "4.1.0-rc2-24027"
      }
    },
    "netcore50": {
      "dependencies": {
        "Microsoft.NETCore.Platforms": {
          "type": "build",
          "version": "1.0.1-rc2-24027"
        },
        "System.Collections.Concurrent": "4.0.12-rc2-24027",
        "System.ComponentModel.Annotations": "4.1.0-rc2-24027",
        "System.Linq.Queryable": "4.0.1-rc2-24027",
        "System.ObjectModel": "4.0.12-rc2-24027",
        "System.Reflection.Extensions": "4.0.1-rc2-24027",
        "System.Reflection.TypeExtensions": "4.1.0-rc2-24027",
        "System.Runtime": {
          "type": "build",
          "version": "4.1.0-rc2-24027"
        },
        "System.Dynamic.Runtime": {
          "type": "build",
          "version": "4.0.11-rc2-24027"
        },
        "System.Runtime.WindowsRuntime": {
          "type": "build",
          "version": "4.0.11-rc2-24027"
        },
        "System.Runtime.Extensions": {
          "type": "build",
          "version": "4.1.0-rc2-24027"
        }
      }
    }
  }
}