{
  "version": "1.0.0-rc2-final",
  "description": "Design-time Entity Framework Functionality for Microsoft SQL Server data store.",
  "buildOptions": {
    "warningsAsErrors": true,
    "keyFile": "../../tools/Key.snk",
    "nowarn": [
      "CS1591"
    ],
    "xmlDoc": true,
    "compile": {
      "include": "../Shared/*.cs"
    }
  },
  "dependencies": {
    "Microsoft.EntityFrameworkCore.SqlServer": "1.0.0-rc2-final",
    "Microsoft.EntityFrameworkCore.Relational.Design": "1.0.0-rc2-final"
  },
  "frameworks": {
    "net451": {},
    "netstandard1.3": {
      "imports": [
        "portable-net452+win81"
      ]
    }
  }
}